position ( [ 1 , 3] ) 
supply ( 5 ) 
revealed ( [ 0 , 0] )
revealed ( [ 1 , 0] )
revealed ( [ 2 , 0] )
revealed ( [ 3 , 0] )
revealed ( [ 4 , 0] )
revealed ( [ 0 , 1] )
revealed ( [ 1 , 1] )
revealed ( [ 2 , 1] )
revealed ( [ 3 , 1] )
revealed ( [ 0 , 2] )
revealed ( [ 1 , 2] )
revealed ( [ 2 , 2] )
revealed ( [ 0 , 3] )
revealed ( [ 1 , 3] )
revealed ( [ 0 , 4] )
revealed ( [ 4 , 1] )
revealed ( [ 3 , 2] )
revealed ( [ 2 , 3] )
revealed ( [ 1 , 4] )
revealed ( [ 0 , 5] )
revealed ( [ 4 , 2] )
revealed ( [ 3 , 3] )
revealed ( [ 2 , 4] )
revealed ( [ 1 , 5] )
revealed ( [ 0 , 6] )
revealed ( [ 5 , 2] )
revealed ( [ 4 , 3] )
revealed ( [ 3 , 4] )
revealed ( [ 2 , 5] )
revealed ( [ 1 , 6] )
revealed ( [ 5 , 3] )
revealed ( [ 4 , 4] )
revealed ( [ 3 , 5] )
revealed ( [ 2 , 6] )
revealed ( [ 1 , 7] )
emerging ( [ 10 , 3 ] , [ 10 , 2] )
s ( 4 )
m ( 5 )
g ( 42 )
t ( 40 )
w ( 30 )
p ( 30 )
l ( 30 )
ll ( 30 )
x ( 4 )
y ( 15 )

